[
    {
        "___PersonalData__": {
            "_address": "Somewhere on the Beach",
            "_city": "Key West",
            "_country": "USA",
            "_full_address": "Somewhere on the Beach,Key West,FL,USA",
            "_name": "Jimmy.Buffet",
            "_phone": "(303) 954-6826",
            "_state": "FL"
        }
    },
    {
        "___PersonalData__": {
            "_address": "1600 Pennsylvania Ave",
            "_city": "Washington",
            "_country": "USA",
            "_full_address": "1600 Pennsylvania Ave,Washington,DC,USA",
            "_name": "George.Bush",
            "_phone": "(916) 245-8748",
            "_state": "DC"
        }
    },
    {
        "___PersonalData__": {
            "_address": "84 Bigboned Way",
            "_city": "South Park",
            "_country": "USA",
            "_full_address": "84 Bigboned Way,South Park,CO,USA",
            "_name": "Eric.Cartman",
            "_phone": "(615) 225-6691",
            "_state": "CO"
        }
    },
    {
        "___PersonalData__": {
            "_address": "The Alamo",
            "_city": "San Antonio",
            "_country": "USA",
            "_full_address": "The Alamo,San Antonio,TX,USA",
            "_name": "Davey.Crockett",
            "_phone": "(923) 079-7286",
            "_state": "TX"
        }
    },
    {
        "___PersonalData__": {
            "_address": "821 Zimbabwe Ave",
            "_city": "Washington",
            "_country": "USA",
            "_full_address": "821 Zimbabwe Ave,Washington,DC,USA",
            "_name": "Jane.Doe",
            "_phone": "(303) 954-6826",
            "_state": "DC"
        }
    },
    {
        "___PersonalData__": {
            "_address": "1 Microsoft Way",
            "_city": "Redmond",
            "_country": "USA",
            "_full_address": "1 Microsoft Way,Redmond,WA,USA",
            "_name": "Bill.Gates",
            "_phone": "(916) 245-8748",
            "_state": "WA"
        }
    },
    {
        "___PersonalData__": {
            "_address": "194 Deelux Apartments",
            "_city": "In the Sky",
            "_country": "USA",
            "_full_address": "194 Deelux Apartments,In the Sky,NY,USA",
            "_name": "George.Jefferson",
            "_phone": "(615) 225-6691",
            "_state": "NY"
        }
    },
    {
        "___PersonalData__": {
            "_address": "Empire State Building",
            "_city": "New York",
            "_country": "USA",
            "_full_address": "Empire State Building,New York,NY,USA",
            "_name": "King.Kong",
            "_phone": "(562) 482-1563",
            "_state": "NY"
        }
    },
    {
        "___PersonalData__": {
            "_address": "1313 Mockingbird Lane",
            "_city": "Fargo",
            "_country": "USA",
            "_full_address": "1313 Mockingbird Lane,Fargo,ND,USA",
            "_name": "Herman.Munster",
            "_phone": "(303) 954-6826",
            "_state": "ND"
        }
    },
    {
        "___PersonalData__": {
            "_address": "146 Keenan Hall",
            "_city": "Notre Dame",
            "_country": "USA",
            "_full_address": "146 Keenan Hall,Notre Dame,IN,USA",
            "_name": "Knute.Rockne",
            "_phone": "(916) 245-8748",
            "_state": "IN"
        }
    },
    {
        "___PersonalData__": {
            "_address": "742 Evergreen Terrace",
            "_city": "Springfield",
            "_country": "USA",
            "_full_address": "742 Evergreen Terrace,Springfield,US,USA",
            "_name": "Homer.Simpson",
            "_phone": "(615) 225-6691",
            "_state": "US"
        }
    },
    {
        "___PersonalData__": {
            "_address": "12 Main Street",
            "_city": "Anytown",
            "_country": "USA",
            "_full_address": "12 Main Street,Anytown,IN,USA",
            "_name": "Bob.Smith",
            "_phone": "(214) 875-5674",
            "_state": "IN"
        }
    }
]