Name,Address,City,State,Country,Phone
Jimmy.Buffet,Somewhere on the Beach,Key West,FL,USA,(303) 954-6826
George.Bush,1600 Pennsylvania Ave,Washington,DC,USA,(916) 245-8748
Eric.Cartman,84 Bigboned Way,South Park,CO,USA,(615) 225-6691
Davey.Crockett,The Alamo,San Antonio,TX,USA,(923) 079-7286
Jane.Doe,821 Zimbabwe Ave,Washington,DC,USA,(303) 954-6826
Bill.Gates,1 Microsoft Way,Redmond,WA,USA,(916) 245-8748
George.Jefferson,194 Deelux Apartments,In the Sky,NY,USA,(615) 225-6691
King.Kong,Empire State Building,New York,NY,USA,(562) 482-1563
Herman.Munster,1313 Mockingbird Lane,Fargo,ND,USA,(303) 954-6826
Knute.Rockne,146 Keenan Hall,Notre Dame,IN,USA,(916) 245-8748
Homer.Simpson,742 Evergreen Terrace,Springfield,US,USA,(615) 225-6691
Bob.Smith,12 Main Street,Anytown,IN,USA,(214) 875-5674